"","Participant","X","Face","Rating1","Third.Party.Rating","Difference.TP","Condition","Rating2","Individual.Difference","Q1","Q2","Q3"
"1","Aleksandra",0,"face11.jpg",5,7,2,"s",5,0,1,3,2
"2","Aleksandra",1,"face10.jpg",4,2,2,"s",3,1,1,3,2
"3","Aleksandra",2,"face12.jpg",7,5,2,"s",7,0,1,3,2
"4","Aleksandra",3,"face13.jpg",7,5,2,"s",6,1,1,3,2
"5","Aleksandra",4,"face17.jpg",5,3,2,"s",5,0,1,3,2
"6","Aleksandra",5,"face_8.jpg",2,5,3,"s",3,1,1,3,2
"7","Aleksandra",6,"face_9.jpg",3,1,2,"s",3,0,1,3,2
"8","Aleksandra",7,"face16.jpg",7,4,3,"s",7,0,1,3,2
"9","Aleksandra",8,"face14.jpg",7,4,3,"s",7,0,1,3,2
"10","Aleksandra",9,"face15.jpg",5,5,0,"s",5,0,1,3,2
"11","Aleksandra",10,"face24.jpg",6,3,3,"s",6,0,1,3,2
"12","Aleksandra",11,"face18.jpg",4,7,3,"s",4,0,1,3,2
"13","Aleksandra",12,"face_7.jpg",7,4,3,"s",7,0,1,3,2
"14","Aleksandra",13,"face_6.jpg",3,3,0,"s",3,0,1,3,2
"15","Aleksandra",14,"face19.jpg",7,5,2,"s",7,0,1,3,2
"16","Aleksandra",15,"face25.jpg",6,6,0,"s",6,0,1,3,2
"17","Aleksandra",16,"face_4.jpg",6,6,0,"s",6,0,1,3,2
"18","Aleksandra",17,"face_5.jpg",6,6,0,"s",6,0,1,3,2
"19","Aleksandra",18,"face22.jpg",6,8,2,"s",6,0,1,3,2
"20","Aleksandra",19,"face_1.jpg",5,8,3,"s",5,0,1,3,2
"21","Aleksandra",20,"face_0.jpg",5,3,2,"s",5,0,1,3,2
"22","Aleksandra",21,"face23.jpg",6,6,0,"s",6,0,1,3,2
"23","Aleksandra",22,"face21.jpg",7,4,3,"s",7,0,1,3,2
"24","Aleksandra",23,"face_2.jpg",5,3,2,"s",5,0,1,3,2
"25","Aleksandra",24,"face_3.jpg",8,8,0,"s",8,0,1,3,2
"26","Aleksandra",25,"face20.jpg",6,6,0,"s",6,0,1,3,2
"27","andreas",0,"face11.jpg",2,2,0,"n",2,0,2,1,1
"28","andreas",1,"face10.jpg",2,5,3,"n",2,0,2,1,1
"29","andreas",2,"face12.jpg",4,4,0,"n",4,0,2,1,1
"30","andreas",3,"face13.jpg",7,7,0,"n",7,0,2,1,1
"31","andreas",4,"face17.jpg",2,2,0,"n",2,0,2,1,1
"32","andreas",5,"face_8.jpg",2,5,3,"n",2,0,2,1,1
"33","andreas",6,"face_9.jpg",2,5,3,"n",2,0,2,1,1
"34","andreas",7,"face16.jpg",7,7,0,"n",7,0,2,1,1
"35","andreas",8,"face14.jpg",7,7,0,"n",7,0,2,1,1
"36","andreas",9,"face15.jpg",4,1,3,"n",4,0,2,1,1
"37","andreas",10,"face24.jpg",8,8,0,"n",8,0,2,1,1
"38","andreas",11,"face18.jpg",4,2,2,"n",4,0,2,1,1
"39","andreas",12,"face_7.jpg",3,6,3,"n",3,0,2,1,1
"40","andreas",13,"face_6.jpg",5,5,0,"n",5,0,2,1,1
"41","andreas",14,"face19.jpg",8,5,3,"n",7,1,2,1,1
"42","andreas",15,"face25.jpg",4,4,0,"n",4,0,2,1,1
"43","andreas",16,"face_4.jpg",3,6,3,"n",3,0,2,1,1
"44","andreas",17,"face_5.jpg",8,6,2,"n",8,0,2,1,1
"45","andreas",18,"face22.jpg",3,5,2,"n",3,0,2,1,1
"46","andreas",19,"face_1.jpg",2,4,2,"n",2,0,2,1,1
"47","andreas",20,"face_0.jpg",2,4,2,"n",2,0,2,1,1
"48","andreas",21,"face23.jpg",7,4,3,"n",7,0,2,1,1
"49","andreas",22,"face21.jpg",7,5,2,"n",7,0,2,1,1
"50","andreas",23,"face_2.jpg",3,6,3,"n",3,0,2,1,1
"51","andreas",24,"face_3.jpg",4,4,0,"n",4,0,2,1,1
"52","andreas",25,"face20.jpg",2,5,3,"n",2,0,2,1,1
"53","Anna",0,"face10.jpg",7,5,2,"s",7,0,2,3,3
"54","Anna",1,"face11.jpg",4,6,2,"s",5,1,2,3,3
"55","Anna",2,"face12.jpg",6,8,2,"s",7,1,2,3,3
"56","Anna",3,"face13.jpg",6,6,0,"s",5,1,2,3,3
"57","Anna",4,"face14.jpg",6,6,0,"s",6,0,2,3,3
"58","Anna",5,"face15.jpg",3,3,0,"s",3,0,2,3,3
"59","Anna",6,"face16.jpg",8,8,0,"s",8,0,2,3,3
"60","Anna",7,"face17.jpg",7,5,2,"s",7,0,2,3,3
"61","Anna",8,"face18.jpg",7,4,3,"s",7,0,2,3,3
"62","Anna",9,"face19.jpg",7,7,0,"s",7,0,2,3,3
"63","Anna",10,"face20.jpg",6,6,0,"s",5,1,2,3,3
"64","Anna",11,"face21.jpg",8,8,0,"s",8,0,2,3,3
"65","Anna",12,"face22.jpg",8,5,3,"s",8,0,2,3,3
"66","Anna",13,"face23.jpg",7,5,2,"s",6,1,2,3,3
"67","Anna",14,"face24.jpg",8,5,3,"s",7,1,2,3,3
"68","Anna",15,"face25.jpg",6,6,0,"s",6,0,2,3,3
"69","Anna",16,"face_0.jpg",3,5,2,"s",3,0,2,3,3
"70","Anna",17,"face_1.jpg",4,2,2,"s",3,1,2,3,3
"71","Anna",18,"face_2.jpg",3,1,2,"s",4,1,2,3,3
"72","Anna",19,"face_3.jpg",5,7,2,"s",5,0,2,3,3
"73","Anna",20,"face_4.jpg",6,3,3,"s",6,0,2,3,3
"74","Anna",21,"face_5.jpg",6,6,0,"s",6,0,2,3,3
"75","Anna",22,"face_6.jpg",7,5,2,"s",7,0,2,3,3
"76","Anna",23,"face_7.jpg",5,8,3,"s",6,1,2,3,3
"77","Anna",24,"face_8.jpg",5,2,3,"s",5,0,2,3,3
"78","Anna",25,"face_9.jpg",2,5,3,"s",2,0,2,3,3
"79","Arpe",0,"face10.jpg",2,5,3,"n",2,0,1,2,2
"80","Arpe",1,"face11.jpg",4,4,0,"n",4,0,1,2,2
"81","Arpe",2,"face12.jpg",4,2,2,"n",3,1,1,2,2
"82","Arpe",3,"face13.jpg",5,3,2,"n",5,0,1,2,2
"83","Arpe",4,"face14.jpg",4,7,3,"n",5,1,1,2,2
"84","Arpe",5,"face15.jpg",5,7,2,"n",5,0,1,2,2
"85","Arpe",6,"face16.jpg",6,6,0,"n",6,0,1,2,2
"86","Arpe",7,"face17.jpg",6,6,0,"n",6,0,1,2,2
"87","Arpe",8,"face18.jpg",5,8,3,"n",6,1,1,2,2
"88","Arpe",9,"face19.jpg",7,7,0,"n",7,0,1,2,2
"89","Arpe",10,"face20.jpg",5,2,3,"n",4,1,1,2,2
"90","Arpe",11,"face21.jpg",6,8,2,"n",6,0,1,2,2
"91","Arpe",12,"face22.jpg",4,7,3,"n",4,0,1,2,2
"92","Arpe",13,"face23.jpg",6,6,0,"n",6,0,1,2,2
"93","Arpe",14,"face24.jpg",5,7,2,"n",6,1,1,2,2
"94","Arpe",15,"face25.jpg",6,3,3,"n",5,1,1,2,2
"95","Arpe",16,"face_0.jpg",4,4,0,"n",4,0,1,2,2
"96","Arpe",17,"face_1.jpg",4,6,2,"n",5,1,1,2,2
"97","Arpe",18,"face_2.jpg",4,6,2,"n",4,0,1,2,2
"98","Arpe",19,"face_3.jpg",4,6,2,"n",5,1,1,2,2
"99","Arpe",20,"face_4.jpg",6,3,3,"n",5,1,1,2,2
"100","Arpe",21,"face_5.jpg",4,2,2,"n",3,1,1,2,2
"101","Arpe",22,"face_6.jpg",3,3,0,"n",3,0,1,2,2
"102","Arpe",23,"face_7.jpg",4,7,3,"n",5,1,1,2,2
"103","Arpe",24,"face_8.jpg",3,3,0,"n",3,0,1,2,2
"104","Arpe",25,"face_9.jpg",4,4,0,"n",4,0,1,2,2
"105","Bao",0,"face10.jpg",4,7,3,"n",5,1,1,2,1
"106","Bao",1,"face11.jpg",6,8,2,"n",7,1,1,2,1
"107","Bao",2,"face12.jpg",4,2,2,"n",5,1,1,2,1
"108","Bao",3,"face13.jpg",4,1,3,"n",5,1,1,2,1
"109","Bao",4,"face14.jpg",6,4,2,"n",5,1,1,2,1
"110","Bao",5,"face15.jpg",5,8,3,"n",6,1,1,2,1
"111","Bao",6,"face16.jpg",8,8,0,"n",8,0,1,2,1
"112","Bao",7,"face17.jpg",5,2,3,"n",6,1,1,2,1
"113","Bao",8,"face18.jpg",6,8,2,"n",6,0,1,2,1
"114","Bao",9,"face19.jpg",8,6,2,"n",7,1,1,2,1
"115","Bao",10,"face20.jpg",5,5,0,"n",7,2,1,2,1
"116","Bao",11,"face21.jpg",8,8,0,"n",8,0,1,2,1
"117","Bao",12,"face22.jpg",5,5,0,"n",6,1,1,2,1
"118","Bao",13,"face23.jpg",7,4,3,"n",8,1,1,2,1
"119","Bao",14,"face24.jpg",4,6,2,"n",5,1,1,2,1
"120","Bao",15,"face25.jpg",5,5,0,"n",5,0,1,2,1
"121","Bao",16,"face_0.jpg",6,6,0,"n",7,1,1,2,1
"122","Bao",17,"face_1.jpg",5,7,2,"n",6,1,1,2,1
"123","Bao",18,"face_2.jpg",4,2,2,"n",3,1,1,2,1
"124","Bao",19,"face_3.jpg",4,6,2,"n",6,2,1,2,1
"125","Bao",20,"face_4.jpg",4,7,3,"n",6,2,1,2,1
"126","Bao",21,"face_5.jpg",5,5,0,"n",7,2,1,2,1
"127","Bao",22,"face_6.jpg",4,1,3,"n",2,2,1,2,1
"128","Bao",23,"face_7.jpg",5,5,0,"n",6,1,1,2,1
"129","Bao",24,"face_8.jpg",5,8,3,"n",6,1,1,2,1
"130","Bao",25,"face_9.jpg",4,6,2,"n",3,1,1,2,1
"131","Benjamin",0,"face10.jpg",3,3,0,"s",3,0,2,3,2
"132","Benjamin",1,"face11.jpg",4,4,0,"s",4,0,2,3,2
"133","Benjamin",2,"face12.jpg",2,2,0,"s",2,0,2,3,2
"134","Benjamin",3,"face13.jpg",5,7,2,"s",6,1,2,3,2
"135","Benjamin",4,"face14.jpg",5,2,3,"s",4,1,2,3,2
"136","Benjamin",5,"face15.jpg",1,3,2,"s",1,0,2,3,2
"137","Benjamin",6,"face16.jpg",8,8,0,"s",8,0,2,3,2
"138","Benjamin",7,"face17.jpg",4,6,2,"s",4,0,2,3,2
"139","Benjamin",8,"face18.jpg",2,2,0,"s",2,0,2,3,2
"140","Benjamin",9,"face19.jpg",7,4,3,"s",7,0,2,3,2
"141","Benjamin",10,"face20.jpg",4,2,2,"s",3,1,2,3,2
"142","Benjamin",11,"face21.jpg",6,3,3,"s",6,0,2,3,2
"143","Benjamin",12,"face22.jpg",5,8,3,"s",5,0,2,3,2
"144","Benjamin",13,"face23.jpg",4,2,2,"s",4,0,2,3,2
"145","Benjamin",14,"face24.jpg",4,4,0,"s",4,0,2,3,2
"146","Benjamin",15,"face25.jpg",3,3,0,"s",3,0,2,3,2
"147","Benjamin",16,"face_0.jpg",4,4,0,"s",4,0,2,3,2
"148","Benjamin",17,"face_1.jpg",2,4,2,"s",2,0,2,3,2
"149","Benjamin",18,"face_2.jpg",2,2,0,"s",2,0,2,3,2
"150","Benjamin",19,"face_3.jpg",3,6,3,"s",4,1,2,3,2
"151","Benjamin",20,"face_4.jpg",5,2,3,"s",5,0,2,3,2
"152","Benjamin",21,"face_5.jpg",4,7,3,"s",5,1,2,3,2
"153","Benjamin",22,"face_6.jpg",2,5,3,"s",3,1,2,3,2
"154","Benjamin",23,"face_7.jpg",3,3,0,"s",3,0,2,3,2
"155","Benjamin",24,"face_8.jpg",1,4,3,"s",1,0,2,3,2
"156","Benjamin",25,"face_9.jpg",2,2,0,"s",2,0,2,3,2
"157","Bjarke",0,"face11.jpg",5,5,0,"s",5,0,1,3,3
"158","Bjarke",1,"face10.jpg",4,6,2,"s",4,0,1,3,3
"159","Bjarke",2,"face12.jpg",6,4,2,"s",6,0,1,3,3
"160","Bjarke",3,"face13.jpg",7,7,0,"s",7,0,1,3,3
"161","Bjarke",4,"face17.jpg",3,6,3,"s",4,1,1,3,3
"162","Bjarke",5,"face_8.jpg",3,5,2,"s",4,1,1,3,3
"163","Bjarke",6,"face_9.jpg",4,2,2,"s",4,0,1,3,3
"164","Bjarke",7,"face16.jpg",6,3,3,"s",4,2,1,3,3
"165","Bjarke",8,"face14.jpg",5,2,3,"s",4,1,1,3,3
"166","Bjarke",9,"face15.jpg",5,2,3,"s",5,0,1,3,3
"167","Bjarke",10,"face24.jpg",4,6,2,"s",4,0,1,3,3
"168","Bjarke",11,"face18.jpg",1,3,2,"s",1,0,1,3,3
"169","Bjarke",12,"face_7.jpg",7,4,3,"s",6,1,1,3,3
"170","Bjarke",13,"face_6.jpg",6,8,2,"s",7,1,1,3,3
"171","Bjarke",14,"face19.jpg",7,4,3,"s",5,2,1,3,3
"172","Bjarke",15,"face25.jpg",5,5,0,"s",6,1,1,3,3
"173","Bjarke",16,"face_4.jpg",4,4,0,"s",4,0,1,3,3
"174","Bjarke",17,"face_5.jpg",7,7,0,"s",7,0,1,3,3
"175","Bjarke",18,"face22.jpg",5,7,2,"s",6,1,1,3,3
"176","Bjarke",19,"face_1.jpg",3,6,3,"s",5,2,1,3,3
"177","Bjarke",20,"face_0.jpg",5,5,0,"s",5,0,1,3,3
"178","Bjarke",21,"face23.jpg",6,8,2,"s",7,1,1,3,3
"179","Bjarke",22,"face21.jpg",6,6,0,"s",6,0,1,3,3
"180","Bjarke",23,"face_2.jpg",3,3,0,"s",3,0,1,3,3
"181","Bjarke",24,"face_3.jpg",6,8,2,"s",7,1,1,3,3
"182","Bjarke",25,"face20.jpg",3,5,2,"s",3,0,1,3,3
"183","Driton",0,"face10.jpg",2,2,0,"s",2,0,2,2,1
"184","Driton",1,"face11.jpg",4,6,2,"s",5,1,2,2,1
"185","Driton",2,"face12.jpg",3,1,2,"s",2,1,2,2,1
"186","Driton",3,"face13.jpg",4,4,0,"s",4,0,2,2,1
"187","Driton",4,"face14.jpg",5,3,2,"s",5,0,2,2,1
"188","Driton",5,"face15.jpg",1,4,3,"s",1,0,2,2,1
"189","Driton",6,"face16.jpg",7,5,2,"s",6,1,2,2,1
"190","Driton",7,"face17.jpg",4,4,0,"s",4,0,2,2,1
"191","Driton",8,"face18.jpg",1,3,2,"s",1,0,2,2,1
"192","Driton",9,"face19.jpg",8,6,2,"s",8,0,2,2,1
"193","Driton",10,"face20.jpg",5,3,2,"s",4,1,2,2,1
"194","Driton",11,"face21.jpg",5,3,2,"s",5,0,2,2,1
"195","Driton",12,"face22.jpg",6,4,2,"s",6,0,2,2,1
"196","Driton",13,"face23.jpg",5,2,3,"s",3,2,2,2,1
"197","Driton",14,"face24.jpg",6,3,3,"s",5,1,2,2,1
"198","Driton",15,"face25.jpg",1,3,2,"s",3,2,2,2,1
"199","Driton",16,"face_0.jpg",3,1,2,"s",3,0,2,2,1
"200","Driton",17,"face_1.jpg",4,2,2,"s",4,0,2,2,1
"201","Driton",18,"face_2.jpg",2,2,0,"s",2,0,2,2,1
"202","Driton",19,"face_3.jpg",3,6,3,"s",3,0,2,2,1
"203","Driton",20,"face_4.jpg",4,6,2,"s",5,1,2,2,1
"204","Driton",21,"face_5.jpg",5,5,0,"s",5,0,2,2,1
"205","Driton",22,"face_6.jpg",4,4,0,"s",4,0,2,2,1
"206","Driton",23,"face_7.jpg",4,7,3,"s",4,0,2,2,1
"207","Driton",24,"face_8.jpg",1,1,0,"s",1,0,2,2,1
"208","Driton",25,"face_9.jpg",3,1,2,"s",3,0,2,2,1
"209","Ebbe",0,"face10.jpg",6,6,0,"n",6,0,2,3,3
"210","Ebbe",1,"face11.jpg",5,7,2,"n",5,0,2,3,3
"211","Ebbe",2,"face12.jpg",5,5,0,"n",5,0,2,3,3
"212","Ebbe",3,"face13.jpg",7,7,0,"n",7,0,2,3,3
"213","Ebbe",4,"face14.jpg",5,3,2,"n",4,1,2,3,3
"214","Ebbe",5,"face15.jpg",6,4,2,"n",5,1,2,3,3
"215","Ebbe",6,"face16.jpg",8,6,2,"n",8,0,2,3,3
"216","Ebbe",7,"face17.jpg",3,1,2,"n",3,0,2,3,3
"217","Ebbe",8,"face18.jpg",7,7,0,"n",7,0,2,3,3
"218","Ebbe",9,"face19.jpg",8,6,2,"n",8,0,2,3,3
"219","Ebbe",10,"face20.jpg",4,7,3,"n",4,0,2,3,3
"220","Ebbe",11,"face21.jpg",7,4,3,"n",7,0,2,3,3
"221","Ebbe",12,"face22.jpg",5,7,2,"n",5,0,2,3,3
"222","Ebbe",13,"face23.jpg",4,4,0,"n",4,0,2,3,3
"223","Ebbe",14,"face24.jpg",5,3,2,"n",5,0,2,3,3
"224","Ebbe",15,"face25.jpg",3,5,2,"n",3,0,2,3,3
"225","Ebbe",16,"face_0.jpg",3,3,0,"n",3,0,2,3,3
"226","Ebbe",17,"face_1.jpg",6,4,2,"n",6,0,2,3,3
"227","Ebbe",18,"face_2.jpg",2,5,3,"n",3,1,2,3,3
"228","Ebbe",19,"face_3.jpg",6,4,2,"n",6,0,2,3,3
"229","Ebbe",20,"face_4.jpg",7,5,2,"n",7,0,2,3,3
"230","Ebbe",21,"face_5.jpg",5,5,0,"n",5,0,2,3,3
"231","Ebbe",22,"face_6.jpg",4,4,0,"n",4,0,2,3,3
"232","Ebbe",23,"face_7.jpg",7,5,2,"n",6,1,2,3,3
"233","Ebbe",24,"face_8.jpg",3,1,2,"n",3,0,2,3,3
"234","Ebbe",25,"face_9.jpg",6,6,0,"n",6,0,2,3,3
"235","Emil",0,"face10.jpg",4,7,3,"s",4,0,3,3,3
"236","Emil",1,"face11.jpg",5,8,3,"s",5,0,3,3,3
"237","Emil",2,"face12.jpg",5,7,2,"s",4,1,3,3,3
"238","Emil",3,"face13.jpg",4,4,0,"s",4,0,3,3,3
"239","Emil",4,"face14.jpg",6,6,0,"s",6,0,3,3,3
"240","Emil",5,"face15.jpg",1,3,2,"s",1,0,3,3,3
"241","Emil",6,"face16.jpg",7,5,2,"s",6,1,3,3,3
"242","Emil",7,"face17.jpg",4,2,2,"s",3,1,3,3,3
"243","Emil",8,"face18.jpg",1,1,0,"s",1,0,3,3,3
"244","Emil",9,"face19.jpg",7,4,3,"s",6,1,3,3,3
"245","Emil",10,"face20.jpg",2,5,3,"s",2,0,3,3,3
"246","Emil",11,"face21.jpg",5,8,3,"s",7,2,3,3,3
"247","Emil",12,"face22.jpg",6,8,2,"s",5,1,3,3,3
"248","Emil",13,"face23.jpg",7,7,0,"s",7,0,3,3,3
"249","Emil",14,"face24.jpg",4,4,0,"s",4,0,3,3,3
"250","Emil",15,"face25.jpg",4,6,2,"s",5,1,3,3,3
"251","Emil",16,"face_0.jpg",1,4,3,"s",1,0,3,3,3
"252","Emil",17,"face_1.jpg",1,3,2,"s",1,0,3,3,3
"253","Emil",18,"face_2.jpg",1,3,2,"s",1,0,3,3,3
"254","Emil",19,"face_3.jpg",4,7,3,"s",4,0,3,3,3
"255","Emil",20,"face_4.jpg",2,4,2,"s",3,1,3,3,3
"256","Emil",21,"face_5.jpg",8,8,0,"s",8,0,3,3,3
"257","Emil",22,"face_6.jpg",5,7,2,"s",5,0,3,3,3
"258","Emil",23,"face_7.jpg",3,3,0,"s",3,0,3,3,3
"259","Emil",24,"face_8.jpg",1,3,2,"s",1,0,3,3,3
"260","Emil",25,"face_9.jpg",1,4,3,"s",1,0,3,3,3
"261","Felix",0,"face10.jpg",4,7,3,"n",6,2,1,3,3
"262","Felix",1,"face11.jpg",3,6,3,"n",3,0,1,3,3
"263","Felix",2,"face12.jpg",4,2,2,"n",3,1,1,3,3
"264","Felix",3,"face13.jpg",4,2,2,"n",3,1,1,3,3
"265","Felix",4,"face14.jpg",6,8,2,"n",6,0,1,3,3
"266","Felix",5,"face15.jpg",6,6,0,"n",4,2,1,3,3
"267","Felix",6,"face16.jpg",3,1,2,"n",2,1,1,3,3
"268","Felix",7,"face17.jpg",2,5,3,"n",3,1,1,3,3
"269","Felix",8,"face18.jpg",1,4,3,"n",1,0,1,3,3
"270","Felix",9,"face19.jpg",8,5,3,"n",7,1,1,3,3
"271","Felix",10,"face20.jpg",4,6,2,"n",4,0,1,3,3
"272","Felix",11,"face21.jpg",8,8,0,"n",8,0,1,3,3
"273","Felix",12,"face22.jpg",5,5,0,"n",5,0,1,3,3
"274","Felix",13,"face23.jpg",4,4,0,"n",4,0,1,3,3
"275","Felix",14,"face24.jpg",5,7,2,"n",5,0,1,3,3
"276","Felix",15,"face25.jpg",6,3,3,"n",4,2,1,3,3
"277","Felix",16,"face_0.jpg",1,4,3,"n",1,0,1,3,3
"278","Felix",17,"face_1.jpg",3,6,3,"n",4,1,1,3,3
"279","Felix",18,"face_2.jpg",1,4,3,"n",2,1,1,3,3
"280","Felix",19,"face_3.jpg",3,6,3,"n",4,1,1,3,3
"281","Felix",20,"face_4.jpg",4,1,3,"n",4,0,1,3,3
"282","Felix",21,"face_5.jpg",6,8,2,"n",6,0,1,3,3
"283","Felix",22,"face_6.jpg",6,3,3,"n",4,2,1,3,3
"284","Felix",23,"face_7.jpg",1,3,2,"n",1,0,1,3,3
"285","Felix",24,"face_8.jpg",1,4,3,"n",1,0,1,3,3
"286","Felix",25,"face_9.jpg",2,4,2,"n",2,0,1,3,3
"287","Henriette",0,"face10.jpg",2,2,0,"s",2,0,2,3,2
"288","Henriette",1,"face11.jpg",5,3,2,"s",4,1,2,3,2
"289","Henriette",2,"face12.jpg",2,2,0,"s",2,0,2,3,2
"290","Henriette",3,"face13.jpg",4,1,3,"s",4,0,2,3,2
"291","Henriette",4,"face14.jpg",5,7,2,"s",6,1,2,3,2
"292","Henriette",5,"face15.jpg",1,1,0,"s",1,0,2,3,2
"293","Henriette",6,"face16.jpg",7,4,3,"s",7,0,2,3,2
"294","Henriette",7,"face17.jpg",2,5,3,"s",3,1,2,3,2
"295","Henriette",8,"face18.jpg",2,4,2,"s",2,0,2,3,2
"296","Henriette",9,"face19.jpg",8,5,3,"s",8,0,2,3,2
"297","Henriette",10,"face20.jpg",3,5,2,"s",3,0,2,3,2
"298","Henriette",11,"face21.jpg",7,7,0,"s",7,0,2,3,2
"299","Henriette",12,"face22.jpg",5,7,2,"s",6,1,2,3,2
"300","Henriette",13,"face23.jpg",4,7,3,"s",4,0,2,3,2
"301","Henriette",14,"face24.jpg",6,6,0,"s",6,0,2,3,2
"302","Henriette",15,"face25.jpg",4,6,2,"s",5,1,2,3,2
"303","Henriette",16,"face_0.jpg",3,3,0,"s",3,0,2,3,2
"304","Henriette",17,"face_1.jpg",4,4,0,"s",4,0,2,3,2
"305","Henriette",18,"face_2.jpg",2,2,0,"s",2,0,2,3,2
"306","Henriette",19,"face_3.jpg",7,4,3,"s",7,0,2,3,2
"307","Henriette",20,"face_4.jpg",7,4,3,"s",7,0,2,3,2
"308","Henriette",21,"face_5.jpg",2,2,0,"s",2,0,2,3,2
"309","Henriette",22,"face_6.jpg",1,3,2,"s",1,0,2,3,2
"310","Henriette",23,"face_7.jpg",5,5,0,"s",5,0,2,3,2
"311","Henriette",24,"face_8.jpg",2,4,2,"s",3,1,2,3,2
"312","Henriette",25,"face_9.jpg",3,3,0,"s",3,0,2,3,2
"313","Jacob",0,"face10.jpg",2,2,0,"n",2,0,1,2,2
"314","Jacob",1,"face11.jpg",3,1,2,"n",3,0,1,2,2
"315","Jacob",2,"face12.jpg",5,5,0,"n",5,0,1,2,2
"316","Jacob",3,"face13.jpg",2,4,2,"n",2,0,1,2,2
"317","Jacob",4,"face14.jpg",6,8,2,"n",6,0,1,2,2
"318","Jacob",5,"face15.jpg",3,3,0,"n",2,1,1,2,2
"319","Jacob",6,"face16.jpg",8,6,2,"n",8,0,1,2,2
"320","Jacob",7,"face17.jpg",5,3,2,"n",4,1,1,2,2
"321","Jacob",8,"face18.jpg",2,5,3,"n",2,0,1,2,2
"322","Jacob",9,"face19.jpg",8,5,3,"n",8,0,1,2,2
"323","Jacob",10,"face20.jpg",3,6,3,"n",3,0,1,2,2
"324","Jacob",11,"face21.jpg",8,8,0,"n",8,0,1,2,2
"325","Jacob",12,"face22.jpg",5,2,3,"n",4,1,1,2,2
"326","Jacob",13,"face23.jpg",8,6,2,"n",8,0,1,2,2
"327","Jacob",14,"face24.jpg",8,5,3,"n",8,0,1,2,2
"328","Jacob",15,"face25.jpg",5,8,3,"n",5,0,1,2,2
"329","Jacob",16,"face_0.jpg",3,6,3,"n",3,0,1,2,2
"330","Jacob",17,"face_1.jpg",3,3,0,"n",3,0,1,2,2
"331","Jacob",18,"face_2.jpg",2,4,2,"n",2,0,1,2,2
"332","Jacob",19,"face_3.jpg",2,2,0,"n",2,0,1,2,2
"333","Jacob",20,"face_4.jpg",3,6,3,"n",3,0,1,2,2
"334","Jacob",21,"face_5.jpg",2,4,2,"n",2,0,1,2,2
"335","Jacob",22,"face_6.jpg",1,1,0,"n",1,0,1,2,2
"336","Jacob",23,"face_7.jpg",1,3,2,"n",1,0,1,2,2
"337","Jacob",24,"face_8.jpg",1,4,3,"n",1,0,1,2,2
"338","Jacob",25,"face_9.jpg",2,2,0,"n",2,0,1,2,2
"339","Jeppe",0,"face10.jpg",1,4,3,"n",1,0,2,3,2
"340","Jeppe",1,"face11.jpg",4,6,2,"n",4,0,2,3,2
"341","Jeppe",2,"face12.jpg",4,4,0,"n",4,0,2,3,2
"342","Jeppe",3,"face13.jpg",6,4,2,"n",6,0,2,3,2
"343","Jeppe",4,"face14.jpg",5,2,3,"n",5,0,2,3,2
"344","Jeppe",5,"face15.jpg",7,7,0,"n",7,0,2,3,2
"345","Jeppe",6,"face16.jpg",6,3,3,"n",6,0,2,3,2
"346","Jeppe",7,"face17.jpg",5,5,0,"n",5,0,2,3,2
"347","Jeppe",8,"face18.jpg",3,1,2,"n",1,2,2,3,2
"348","Jeppe",9,"face19.jpg",8,6,2,"n",8,0,2,3,2
"349","Jeppe",10,"face20.jpg",5,7,2,"n",5,0,2,3,2
"350","Jeppe",11,"face21.jpg",7,4,3,"n",7,0,2,3,2
"351","Jeppe",12,"face22.jpg",5,7,2,"n",5,0,2,3,2
"352","Jeppe",13,"face23.jpg",6,8,2,"n",6,0,2,3,2
"353","Jeppe",14,"face24.jpg",6,6,0,"n",6,0,2,3,2
"354","Jeppe",15,"face25.jpg",2,5,3,"n",2,0,2,3,2
"355","Jeppe",16,"face_0.jpg",3,3,0,"n",3,0,2,3,2
"356","Jeppe",17,"face_1.jpg",5,3,2,"n",5,0,2,3,2
"357","Jeppe",18,"face_2.jpg",1,4,3,"n",1,0,2,3,2
"358","Jeppe",19,"face_3.jpg",8,8,0,"n",8,0,2,3,2
"359","Jeppe",20,"face_4.jpg",5,5,0,"n",5,0,2,3,2
"360","Jeppe",21,"face_5.jpg",3,1,2,"n",1,2,2,3,2
"361","Jeppe",22,"face_6.jpg",2,4,2,"n",2,0,2,3,2
"362","Jeppe",23,"face_7.jpg",1,4,3,"n",1,0,2,3,2
"363","Jeppe",24,"face_8.jpg",1,3,2,"n",1,0,2,3,2
"364","Jeppe",25,"face_9.jpg",7,4,3,"n",7,0,2,3,2
"365","Julian",0,"face10.jpg",3,1,2,"n",3,0,2,3,3
"366","Julian",1,"face11.jpg",2,4,2,"n",2,0,2,3,3
"367","Julian",2,"face12.jpg",5,3,2,"n",5,0,2,3,3
"368","Julian",3,"face13.jpg",2,4,2,"n",2,0,2,3,3
"369","Julian",4,"face14.jpg",4,4,0,"n",4,0,2,3,3
"370","Julian",5,"face15.jpg",6,8,2,"n",6,0,2,3,3
"371","Julian",6,"face16.jpg",5,3,2,"n",5,0,2,3,3
"372","Julian",7,"face17.jpg",7,5,2,"n",7,0,2,3,3
"373","Julian",8,"face18.jpg",7,4,3,"n",6,1,2,3,3
"374","Julian",9,"face19.jpg",8,8,0,"n",8,0,2,3,3
"375","Julian",10,"face20.jpg",3,3,0,"n",3,0,2,3,3
"376","Julian",11,"face21.jpg",7,5,2,"n",7,0,2,3,3
"377","Julian",12,"face22.jpg",8,5,3,"n",7,1,2,3,3
"378","Julian",13,"face23.jpg",8,5,3,"n",8,0,2,3,3
"379","Julian",14,"face24.jpg",6,8,2,"n",6,0,2,3,3
"380","Julian",15,"face25.jpg",4,2,2,"n",4,0,2,3,3
"381","Julian",16,"face_0.jpg",7,4,3,"n",6,1,2,3,3
"382","Julian",17,"face_1.jpg",6,3,3,"n",5,1,2,3,3
"383","Julian",18,"face_2.jpg",4,7,3,"n",5,1,2,3,3
"384","Julian",19,"face_3.jpg",5,5,0,"n",5,0,2,3,3
"385","Julian",20,"face_4.jpg",3,5,2,"n",3,0,2,3,3
"386","Julian",21,"face_5.jpg",3,1,2,"n",3,0,2,3,3
"387","Julian",22,"face_6.jpg",4,7,3,"n",4,0,2,3,3
"388","Julian",23,"face_7.jpg",5,8,3,"n",5,0,2,3,3
"389","Julian",24,"face_8.jpg",2,4,2,"n",2,0,2,3,3
"390","Julian",25,"face_9.jpg",7,5,2,"n",6,1,2,3,3
"391","Klara",0,"face10.jpg",6,8,2,"s",7,1,2,3,2
"392","Klara",1,"face11.jpg",7,7,0,"s",7,0,2,3,2
"393","Klara",2,"face12.jpg",6,6,0,"s",6,0,2,3,2
"394","Klara",3,"face13.jpg",7,5,2,"s",7,0,2,3,2
"395","Klara",4,"face14.jpg",7,7,0,"s",7,0,2,3,2
"396","Klara",5,"face15.jpg",4,4,0,"s",4,0,2,3,2
"397","Klara",6,"face16.jpg",7,4,3,"s",6,1,2,3,2
"398","Klara",7,"face17.jpg",5,2,3,"s",3,2,2,3,2
"399","Klara",8,"face18.jpg",5,5,0,"s",5,0,2,3,2
"400","Klara",9,"face19.jpg",7,4,3,"s",6,1,2,3,2
"401","Klara",10,"face20.jpg",4,1,3,"s",2,2,2,3,2
"402","Klara",11,"face21.jpg",6,8,2,"s",7,1,2,3,2
"403","Klara",12,"face22.jpg",7,5,2,"s",6,1,2,3,2
"404","Klara",13,"face23.jpg",6,3,3,"s",5,1,2,3,2
"405","Klara",14,"face24.jpg",6,6,0,"s",6,0,2,3,2
"406","Klara",15,"face25.jpg",4,4,0,"s",4,0,2,3,2
"407","Klara",16,"face_0.jpg",5,2,3,"s",4,1,2,3,2
"408","Klara",17,"face_1.jpg",6,6,0,"s",6,0,2,3,2
"409","Klara",18,"face_2.jpg",3,1,2,"s",2,1,2,3,2
"410","Klara",19,"face_3.jpg",5,5,0,"s",5,0,2,3,2
"411","Klara",20,"face_4.jpg",7,4,3,"s",6,1,2,3,2
"412","Klara",21,"face_5.jpg",4,2,2,"s",3,1,2,3,2
"413","Klara",22,"face_6.jpg",3,1,2,"s",2,1,2,3,2
"414","Klara",23,"face_7.jpg",6,8,2,"s",7,1,2,3,2
"415","Klara",24,"face_8.jpg",4,6,2,"s",5,1,2,3,2
"416","Klara",25,"face_9.jpg",3,3,0,"s",3,0,2,3,2
"417","Lars",0,"face10.jpg",6,6,0,"s",6,0,1,2,2
"418","Lars",1,"face11.jpg",5,5,0,"s",5,0,1,2,2
"419","Lars",2,"face12.jpg",6,8,2,"s",7,1,1,2,2
"420","Lars",3,"face13.jpg",7,4,3,"s",6,1,1,2,2
"421","Lars",4,"face14.jpg",7,7,0,"s",7,0,1,2,2
"422","Lars",5,"face15.jpg",4,4,0,"s",4,0,1,2,2
"423","Lars",6,"face16.jpg",8,8,0,"s",8,0,1,2,2
"424","Lars",7,"face17.jpg",4,4,0,"s",4,0,1,2,2
"425","Lars",8,"face18.jpg",7,5,2,"s",6,1,1,2,2
"426","Lars",9,"face19.jpg",8,8,0,"s",8,0,1,2,2
"427","Lars",10,"face20.jpg",5,8,3,"s",5,0,1,2,2
"428","Lars",11,"face21.jpg",6,3,3,"s",5,1,1,2,2
"429","Lars",12,"face22.jpg",7,5,2,"s",6,1,1,2,2
"430","Lars",13,"face23.jpg",5,3,2,"s",5,0,1,2,2
"431","Lars",14,"face24.jpg",7,4,3,"s",7,0,1,2,2
"432","Lars",15,"face25.jpg",5,7,2,"s",6,1,1,2,2
"433","Lars",16,"face_0.jpg",3,3,0,"s",2,1,1,2,2
"434","Lars",17,"face_1.jpg",6,4,2,"s",6,0,1,2,2
"435","Lars",18,"face_2.jpg",5,5,0,"s",5,0,1,2,2
"436","Lars",19,"face_3.jpg",6,8,2,"s",7,1,1,2,2
"437","Lars",20,"face_4.jpg",4,4,0,"s",4,0,1,2,2
"438","Lars",21,"face_5.jpg",6,6,0,"s",6,0,1,2,2
"439","Lars",22,"face_6.jpg",5,2,3,"s",5,0,1,2,2
"440","Lars",23,"face_7.jpg",5,5,0,"s",5,0,1,2,2
"441","Lars",24,"face_8.jpg",5,8,3,"s",5,0,1,2,2
"442","Lars",25,"face_9.jpg",6,3,3,"s",6,0,1,2,2
"443","Laura",0,"face10.jpg",4,4,0,"s",4,0,2,3,2
"444","Laura",1,"face11.jpg",4,2,2,"s",4,0,2,3,2
"445","Laura",2,"face12.jpg",4,4,0,"s",4,0,2,3,2
"446","Laura",3,"face13.jpg",4,4,0,"s",4,0,2,3,2
"447","Laura",4,"face14.jpg",5,2,3,"s",4,1,2,3,2
"448","Laura",5,"face15.jpg",3,1,2,"s",3,0,2,3,2
"449","Laura",6,"face16.jpg",5,2,3,"s",5,0,2,3,2
"450","Laura",7,"face17.jpg",3,5,2,"s",3,0,2,3,2
"451","Laura",8,"face18.jpg",3,1,2,"s",3,0,2,3,2
"452","Laura",9,"face19.jpg",5,5,0,"s",5,0,2,3,2
"453","Laura",10,"face20.jpg",4,4,0,"s",4,0,2,3,2
"454","Laura",11,"face21.jpg",4,1,3,"s",4,0,2,3,2
"455","Laura",12,"face22.jpg",4,6,2,"s",4,0,2,3,2
"456","Laura",13,"face23.jpg",4,7,3,"s",4,0,2,3,2
"457","Laura",14,"face24.jpg",4,6,2,"s",4,0,2,3,2
"458","Laura",15,"face25.jpg",4,7,3,"s",4,0,2,3,2
"459","Laura",16,"face_0.jpg",3,1,2,"s",3,0,2,3,2
"460","Laura",17,"face_1.jpg",3,1,2,"s",3,0,2,3,2
"461","Laura",18,"face_2.jpg",3,5,2,"s",3,0,2,3,2
"462","Laura",19,"face_3.jpg",4,4,0,"s",4,0,2,3,2
"463","Laura",20,"face_4.jpg",4,4,0,"s",4,0,2,3,2
"464","Laura",21,"face_5.jpg",4,6,2,"s",4,0,2,3,2
"465","Laura",22,"face_6.jpg",4,7,3,"s",5,1,2,3,2
"466","Laura",23,"face_7.jpg",4,4,0,"s",4,0,2,3,2
"467","Laura",24,"face_8.jpg",3,1,2,"s",3,0,2,3,2
"468","Laura",25,"face_9.jpg",3,1,2,"s",3,0,2,3,2
"469","Maria ",0,"face10.jpg",3,3,0,"s",3,0,2,3,2
"470","Maria ",1,"face11.jpg",5,8,3,"s",5,0,2,3,2
"471","Maria ",2,"face12.jpg",4,2,2,"s",3,1,2,3,2
"472","Maria ",3,"face13.jpg",6,6,0,"s",6,0,2,3,2
"473","Maria ",4,"face14.jpg",6,8,2,"s",6,0,2,3,2
"474","Maria ",5,"face15.jpg",3,3,0,"s",2,1,2,3,2
"475","Maria ",6,"face16.jpg",7,4,3,"s",7,0,2,3,2
"476","Maria ",7,"face17.jpg",5,8,3,"s",5,0,2,3,2
"477","Maria ",8,"face18.jpg",3,3,0,"s",3,0,2,3,2
"478","Maria ",9,"face19.jpg",3,1,2,"s",3,0,2,3,2
"479","Maria ",10,"face20.jpg",4,1,3,"s",4,0,2,3,2
"480","Maria ",11,"face21.jpg",5,3,2,"s",5,0,2,3,2
"481","Maria ",12,"face22.jpg",4,1,3,"s",4,0,2,3,2
"482","Maria ",13,"face23.jpg",4,2,2,"s",3,1,2,3,2
"483","Maria ",14,"face24.jpg",4,2,2,"s",4,0,2,3,2
"484","Maria ",15,"face25.jpg",7,4,3,"s",7,0,2,3,2
"485","Maria ",16,"face_0.jpg",1,4,3,"s",1,0,2,3,2
"486","Maria ",17,"face_1.jpg",2,2,0,"s",2,0,2,3,2
"487","Maria ",18,"face_2.jpg",3,3,0,"s",3,0,2,3,2
"488","Maria ",19,"face_3.jpg",5,5,0,"s",5,0,2,3,2
"489","Maria ",20,"face_4.jpg",2,4,2,"s",3,1,2,3,2
"490","Maria ",21,"face_5.jpg",6,6,0,"s",6,0,2,3,2
"491","Maria ",22,"face_6.jpg",7,5,2,"s",7,0,2,3,2
"492","Maria ",23,"face_7.jpg",3,3,0,"s",3,0,2,3,2
"493","Maria ",24,"face_8.jpg",2,4,2,"s",2,0,2,3,2
"494","Maria ",25,"face_9.jpg",3,1,2,"s",3,0,2,3,2
"495","Martin",0,"face11.jpg",2,4,2,"s",2,0,1,2,1
"496","Martin",1,"face10.jpg",5,5,0,"s",5,0,1,2,1
"497","Martin",2,"face12.jpg",7,7,0,"s",7,0,1,2,1
"498","Martin",3,"face13.jpg",6,4,2,"s",6,0,1,2,1
"499","Martin",4,"face17.jpg",3,6,3,"s",3,0,1,2,1
"500","Martin",5,"face_8.jpg",1,1,0,"s",1,0,1,2,1
"501","Martin",6,"face_9.jpg",6,6,0,"s",6,0,1,2,1
"502","Martin",7,"face16.jpg",5,5,0,"s",5,0,1,2,1
"503","Martin",8,"face14.jpg",7,5,2,"s",7,0,1,2,1
"504","Martin",9,"face15.jpg",1,3,2,"s",1,0,1,2,1
"505","Martin",10,"face24.jpg",8,6,2,"s",8,0,1,2,1
"506","Martin",11,"face18.jpg",2,2,0,"s",2,0,1,2,1
"507","Martin",12,"face_7.jpg",5,8,3,"s",5,0,1,2,1
"508","Martin",13,"face_6.jpg",2,4,2,"s",2,0,1,2,1
"509","Martin",14,"face19.jpg",7,4,3,"s",7,0,1,2,1
"510","Martin",15,"face25.jpg",6,3,3,"s",6,0,1,2,1
"511","Martin",16,"face_4.jpg",8,8,0,"s",8,0,1,2,1
"512","Martin",17,"face_5.jpg",3,5,2,"s",3,0,1,2,1
"513","Martin",18,"face22.jpg",5,3,2,"s",5,0,1,2,1
"514","Martin",19,"face_1.jpg",6,3,3,"s",6,0,1,2,1
"515","Martin",20,"face_0.jpg",1,4,3,"s",1,0,1,2,1
"516","Martin",21,"face23.jpg",5,8,3,"s",5,0,1,2,1
"517","Martin",22,"face21.jpg",6,8,2,"s",6,0,1,2,1
"518","Martin",23,"face_2.jpg",3,5,2,"s",3,0,1,2,1
"519","Martin",24,"face_3.jpg",6,3,3,"s",6,0,1,2,1
"520","Martin",25,"face20.jpg",5,5,0,"s",5,0,1,2,1
"521","Michael",0,"face10.jpg",2,2,0,"n",2,0,2,3,3
"522","Michael",1,"face11.jpg",3,1,2,"n",2,1,2,3,3
"523","Michael",2,"face12.jpg",3,5,2,"n",3,0,2,3,3
"524","Michael",3,"face13.jpg",1,3,2,"n",2,1,2,3,3
"525","Michael",4,"face14.jpg",3,1,2,"n",2,1,2,3,3
"526","Michael",5,"face15.jpg",2,4,2,"n",3,1,2,3,3
"527","Michael",6,"face16.jpg",5,5,0,"n",7,2,2,3,3
"528","Michael",7,"face17.jpg",4,1,3,"n",3,1,2,3,3
"529","Michael",8,"face18.jpg",6,8,2,"n",4,2,2,3,3
"530","Michael",9,"face19.jpg",6,3,3,"n",4,2,2,3,3
"531","Michael",10,"face20.jpg",3,3,0,"n",5,2,2,3,3
"532","Michael",11,"face21.jpg",6,8,2,"n",7,1,2,3,3
"533","Michael",12,"face22.jpg",3,3,0,"n",2,1,2,3,3
"534","Michael",13,"face23.jpg",8,8,0,"n",8,0,2,3,3
"535","Michael",14,"face24.jpg",3,1,2,"n",2,1,2,3,3
"536","Michael",15,"face25.jpg",4,2,2,"n",2,2,2,3,3
"537","Michael",16,"face_0.jpg",3,3,0,"n",2,1,2,3,3
"538","Michael",17,"face_1.jpg",2,2,0,"n",2,0,2,3,3
"539","Michael",18,"face_2.jpg",1,4,3,"n",3,2,2,3,3
"540","Michael",19,"face_3.jpg",1,4,3,"n",2,1,2,3,3
"541","Michael",20,"face_4.jpg",3,3,0,"n",3,0,2,3,3
"542","Michael",21,"face_5.jpg",2,4,2,"n",3,1,2,3,3
"543","Michael",22,"face_6.jpg",5,2,3,"n",4,1,2,3,3
"544","Michael",23,"face_7.jpg",2,2,0,"n",1,1,2,3,3
"545","Michael",24,"face_8.jpg",4,2,2,"n",3,1,2,3,3
"546","Michael",25,"face_9.jpg",2,4,2,"n",3,1,2,3,3
"547","Michelle",0,"face10.jpg",2,5,3,"n",2,0,2,3,3
"548","Michelle",1,"face11.jpg",4,4,0,"n",4,0,2,3,3
"549","Michelle",2,"face12.jpg",2,2,0,"n",2,0,2,3,3
"550","Michelle",3,"face13.jpg",6,6,0,"n",6,0,2,3,3
"551","Michelle",4,"face14.jpg",6,6,0,"n",6,0,2,3,3
"552","Michelle",5,"face15.jpg",4,1,3,"n",4,0,2,3,3
"553","Michelle",6,"face16.jpg",3,5,2,"n",3,0,2,3,3
"554","Michelle",7,"face17.jpg",2,5,3,"n",2,0,2,3,3
"555","Michelle",8,"face18.jpg",2,5,3,"n",2,0,2,3,3
"556","Michelle",9,"face19.jpg",8,5,3,"n",8,0,2,3,3
"557","Michelle",10,"face20.jpg",3,5,2,"n",3,0,2,3,3
"558","Michelle",11,"face21.jpg",7,5,2,"n",7,0,2,3,3
"559","Michelle",12,"face22.jpg",5,3,2,"n",5,0,2,3,3
"560","Michelle",13,"face23.jpg",5,8,3,"n",8,3,2,3,3
"561","Michelle",14,"face24.jpg",7,4,3,"n",7,0,2,3,3
"562","Michelle",15,"face25.jpg",3,6,3,"n",3,0,2,3,3
"563","Michelle",16,"face_0.jpg",2,2,0,"n",2,0,2,3,3
"564","Michelle",17,"face_1.jpg",2,2,0,"n",2,0,2,3,3
"565","Michelle",18,"face_2.jpg",5,2,3,"n",4,1,2,3,3
"566","Michelle",19,"face_3.jpg",7,4,3,"n",7,0,2,3,3
"567","Michelle",20,"face_4.jpg",7,5,2,"n",7,0,2,3,3
"568","Michelle",21,"face_5.jpg",6,3,3,"n",6,0,2,3,3
"569","Michelle",22,"face_6.jpg",2,5,3,"n",2,0,2,3,3
"570","Michelle",23,"face_7.jpg",3,3,0,"n",3,0,2,3,3
"571","Michelle",24,"face_8.jpg",2,2,0,"n",2,0,2,3,3
"572","Michelle",25,"face_9.jpg",2,4,2,"n",2,0,2,3,3
"573","Mikkel",0,"face11.jpg",3,1,2,"n",2,1,3,1,1
"574","Mikkel",1,"face10.jpg",1,3,2,"n",1,0,3,1,1
"575","Mikkel",2,"face12.jpg",2,4,2,"n",2,0,3,1,1
"576","Mikkel",3,"face13.jpg",4,2,2,"n",4,0,3,1,1
"577","Mikkel",4,"face17.jpg",5,5,0,"n",5,0,3,1,1
"578","Mikkel",5,"face_8.jpg",3,3,0,"n",3,0,3,1,1
"579","Mikkel",6,"face_9.jpg",4,1,3,"n",3,1,3,1,1
"580","Mikkel",7,"face16.jpg",6,8,2,"n",7,1,3,1,1
"581","Mikkel",8,"face14.jpg",6,6,0,"n",6,0,3,1,1
"582","Mikkel",9,"face15.jpg",1,4,3,"n",2,1,3,1,1
"583","Mikkel",10,"face24.jpg",7,5,2,"n",6,1,3,1,1
"584","Mikkel",11,"face18.jpg",3,6,3,"n",3,0,3,1,1
"585","Mikkel",12,"face_7.jpg",5,3,2,"n",4,1,3,1,1
"586","Mikkel",13,"face_6.jpg",2,2,0,"n",2,0,3,1,1
"587","Mikkel",14,"face19.jpg",8,5,3,"n",7,1,3,1,1
"588","Mikkel",15,"face25.jpg",3,6,3,"n",3,0,3,1,1
"589","Mikkel",16,"face_4.jpg",7,7,0,"n",7,0,3,1,1
"590","Mikkel",17,"face_5.jpg",4,6,2,"n",5,1,3,1,1
"591","Mikkel",18,"face22.jpg",8,5,3,"n",7,1,3,1,1
"592","Mikkel",19,"face_1.jpg",5,8,3,"n",6,1,3,1,1
"593","Mikkel",20,"face_0.jpg",6,4,2,"n",5,1,3,1,1
"594","Mikkel",21,"face23.jpg",6,8,2,"n",7,1,3,1,1
"595","Mikkel",22,"face21.jpg",8,5,3,"n",8,0,3,1,1
"596","Mikkel",23,"face_2.jpg",3,1,2,"n",2,1,3,1,1
"597","Mikkel",24,"face_3.jpg",3,5,2,"n",4,1,3,1,1
"598","Mikkel",25,"face20.jpg",1,4,3,"n",1,0,3,1,1
"599","Milosz",0,"face10.jpg",4,4,0,"s",4,0,2,3,2
"600","Milosz",1,"face11.jpg",3,5,2,"s",3,0,2,3,2
"601","Milosz",2,"face12.jpg",6,4,2,"s",5,1,2,3,2
"602","Milosz",3,"face13.jpg",5,7,2,"s",7,2,2,3,2
"603","Milosz",4,"face14.jpg",5,2,3,"s",5,0,2,3,2
"604","Milosz",5,"face15.jpg",1,1,0,"s",1,0,2,3,2
"605","Milosz",6,"face16.jpg",8,8,0,"s",8,0,2,3,2
"606","Milosz",7,"face17.jpg",3,3,0,"s",2,1,2,3,2
"607","Milosz",8,"face18.jpg",2,5,3,"s",2,0,2,3,2
"608","Milosz",9,"face19.jpg",8,5,3,"s",8,0,2,3,2
"609","Milosz",10,"face20.jpg",6,8,2,"s",6,0,2,3,2
"610","Milosz",11,"face21.jpg",6,8,2,"s",7,1,2,3,2
"611","Milosz",12,"face22.jpg",4,7,3,"s",4,0,2,3,2
"612","Milosz",13,"face23.jpg",7,7,0,"s",7,0,2,3,2
"613","Milosz",14,"face24.jpg",8,8,0,"s",8,0,2,3,2
"614","Milosz",15,"face25.jpg",7,7,0,"s",7,0,2,3,2
"615","Milosz",16,"face_0.jpg",6,8,2,"s",6,0,2,3,2
"616","Milosz",17,"face_1.jpg",7,5,2,"s",7,0,2,3,2
"617","Milosz",18,"face_2.jpg",4,2,2,"s",4,0,2,3,2
"618","Milosz",19,"face_3.jpg",5,5,0,"s",5,0,2,3,2
"619","Milosz",20,"face_4.jpg",8,6,2,"s",8,0,2,3,2
"620","Milosz",21,"face_5.jpg",5,8,3,"s",5,0,2,3,2
"621","Milosz",22,"face_6.jpg",4,4,0,"s",4,0,2,3,2
"622","Milosz",23,"face_7.jpg",5,3,2,"s",4,1,2,3,2
"623","Milosz",24,"face_8.jpg",3,1,2,"s",2,1,2,3,2
"624","Milosz",25,"face_9.jpg",7,7,0,"s",8,1,2,3,2
"625","Mithuna ",0,"face10.jpg",4,1,3,"s",4,0,2,2,2
"626","Mithuna ",1,"face11.jpg",6,8,2,"s",6,0,2,2,2
"627","Mithuna ",2,"face12.jpg",5,8,3,"s",5,0,2,2,2
"628","Mithuna ",3,"face13.jpg",4,4,0,"s",4,0,2,2,2
"629","Mithuna ",4,"face14.jpg",7,7,0,"s",7,0,2,2,2
"630","Mithuna ",5,"face15.jpg",2,5,3,"s",2,0,2,2,2
"631","Mithuna ",6,"face16.jpg",7,4,3,"s",6,1,2,2,2
"632","Mithuna ",7,"face17.jpg",4,4,0,"s",4,0,2,2,2
"633","Mithuna ",8,"face18.jpg",2,2,0,"s",2,0,2,2,2
"634","Mithuna ",9,"face19.jpg",7,7,0,"s",7,0,2,2,2
"635","Mithuna ",10,"face20.jpg",5,2,3,"s",4,1,2,2,2
"636","Mithuna ",11,"face21.jpg",5,3,2,"s",5,0,2,2,2
"637","Mithuna ",12,"face22.jpg",6,8,2,"s",6,0,2,2,2
"638","Mithuna ",13,"face23.jpg",4,4,0,"s",4,0,2,2,2
"639","Mithuna ",14,"face24.jpg",5,7,2,"s",5,0,2,2,2
"640","Mithuna ",15,"face25.jpg",7,4,3,"s",7,0,2,2,2
"641","Mithuna ",16,"face_0.jpg",2,4,2,"s",2,0,2,2,2
"642","Mithuna ",17,"face_1.jpg",3,3,0,"s",3,0,2,2,2
"643","Mithuna ",18,"face_2.jpg",3,5,2,"s",3,0,2,2,2
"644","Mithuna ",19,"face_3.jpg",6,6,0,"s",6,0,2,2,2
"645","Mithuna ",20,"face_4.jpg",5,7,2,"s",5,0,2,2,2
"646","Mithuna ",21,"face_5.jpg",5,3,2,"s",5,0,2,2,2
"647","Mithuna ",22,"face_6.jpg",3,1,2,"s",2,1,2,2,2
"648","Mithuna ",23,"face_7.jpg",2,2,0,"s",2,0,2,2,2
"649","Mithuna ",24,"face_8.jpg",2,5,3,"s",2,0,2,2,2
"650","Mithuna ",25,"face_9.jpg",4,4,0,"s",4,0,2,2,2
"651","Pernille",0,"face10.jpg",4,2,2,"n",4,0,3,3,3
"652","Pernille",1,"face11.jpg",6,3,3,"n",6,0,3,3,3
"653","Pernille",2,"face12.jpg",3,1,2,"n",3,0,3,3,3
"654","Pernille",3,"face13.jpg",6,6,0,"n",6,0,3,3,3
"655","Pernille",4,"face14.jpg",7,7,0,"n",7,0,3,3,3
"656","Pernille",5,"face15.jpg",4,4,0,"n",4,0,3,3,3
"657","Pernille",6,"face16.jpg",7,4,3,"n",7,0,3,3,3
"658","Pernille",7,"face17.jpg",7,4,3,"n",7,0,3,3,3
"659","Pernille",8,"face18.jpg",2,5,3,"n",2,0,3,3,3
"660","Pernille",9,"face19.jpg",8,6,2,"n",8,0,3,3,3
"661","Pernille",10,"face20.jpg",4,4,0,"n",4,0,3,3,3
"662","Pernille",11,"face21.jpg",3,6,3,"n",4,1,3,3,3
"663","Pernille",12,"face22.jpg",4,2,2,"n",4,0,3,3,3
"664","Pernille",13,"face23.jpg",7,5,2,"n",7,0,3,3,3
"665","Pernille",14,"face24.jpg",6,8,2,"n",6,0,3,3,3
"666","Pernille",15,"face25.jpg",7,4,3,"n",6,1,3,3,3
"667","Pernille",16,"face_0.jpg",3,3,0,"n",2,1,3,3,3
"668","Pernille",17,"face_1.jpg",1,1,0,"n",1,0,3,3,3
"669","Pernille",18,"face_2.jpg",5,5,0,"n",5,0,3,3,3
"670","Pernille",19,"face_3.jpg",5,7,2,"n",6,1,3,3,3
"671","Pernille",20,"face_4.jpg",5,2,3,"n",4,1,3,3,3
"672","Pernille",21,"face_5.jpg",6,8,2,"n",7,1,3,3,3
"673","Pernille",22,"face_6.jpg",6,3,3,"n",5,1,3,3,3
"674","Pernille",23,"face_7.jpg",2,5,3,"n",2,0,3,3,3
"675","Pernille",24,"face_8.jpg",1,1,0,"n",1,0,3,3,3
"676","Pernille",25,"face_9.jpg",2,5,3,"n",3,1,3,3,3
"677","Philipp",0,"face10.jpg",5,7,2,"n",6,1,1,2,2
"678","Philipp",1,"face11.jpg",4,4,0,"n",4,0,1,2,2
"679","Philipp",2,"face12.jpg",7,4,3,"n",6,1,1,2,2
"680","Philipp",3,"face13.jpg",2,2,0,"n",2,0,1,2,2
"681","Philipp",4,"face14.jpg",6,8,2,"n",7,1,1,2,2
"682","Philipp",5,"face15.jpg",4,4,0,"n",4,0,1,2,2
"683","Philipp",6,"face16.jpg",8,8,0,"n",8,0,1,2,2
"684","Philipp",7,"face17.jpg",1,1,0,"n",1,0,1,2,2
"685","Philipp",8,"face18.jpg",4,4,0,"n",4,0,1,2,2
"686","Philipp",9,"face19.jpg",8,5,3,"n",8,0,1,2,2
"687","Philipp",10,"face20.jpg",4,6,2,"n",4,0,1,2,2
"688","Philipp",11,"face21.jpg",6,6,0,"n",6,0,1,2,2
"689","Philipp",12,"face22.jpg",5,5,0,"n",5,0,1,2,2
"690","Philipp",13,"face23.jpg",7,7,0,"n",7,0,1,2,2
"691","Philipp",14,"face24.jpg",8,6,2,"n",8,0,1,2,2
"692","Philipp",15,"face25.jpg",4,4,0,"n",4,0,1,2,2
"693","Philipp",16,"face_0.jpg",1,3,2,"n",2,1,1,2,2
"694","Philipp",17,"face_1.jpg",5,5,0,"n",5,0,1,2,2
"695","Philipp",18,"face_2.jpg",3,3,0,"n",3,0,1,2,2
"696","Philipp",19,"face_3.jpg",1,1,0,"n",1,0,1,2,2
"697","Philipp",20,"face_4.jpg",1,4,3,"n",2,1,1,2,2
"698","Philipp",21,"face_5.jpg",4,6,2,"n",5,1,1,2,2
"699","Philipp",22,"face_6.jpg",4,4,0,"n",4,0,1,2,2
"700","Philipp",23,"face_7.jpg",1,4,3,"n",2,1,1,2,2
"701","Philipp",24,"face_8.jpg",2,4,2,"n",2,0,1,2,2
"702","Philipp",25,"face_9.jpg",3,1,2,"n",2,1,1,2,2
"703","Rafael",0,"face10.jpg",2,4,2,"n",3,1,1,3,2
"704","Rafael",1,"face11.jpg",6,3,3,"n",6,0,1,3,2
"705","Rafael",2,"face12.jpg",4,6,2,"n",6,2,1,3,2
"706","Rafael",3,"face13.jpg",3,6,3,"n",3,0,1,3,2
"707","Rafael",4,"face14.jpg",7,7,0,"n",7,0,1,3,2
"708","Rafael",5,"face15.jpg",2,4,2,"n",3,1,1,3,2
"709","Rafael",6,"face16.jpg",5,8,3,"n",5,0,1,3,2
"710","Rafael",7,"face17.jpg",3,1,2,"n",3,0,1,3,2
"711","Rafael",8,"face18.jpg",6,8,2,"n",6,0,1,3,2
"712","Rafael",9,"face19.jpg",7,4,3,"n",7,0,1,3,2
"713","Rafael",10,"face20.jpg",5,5,0,"n",5,0,1,3,2
"714","Rafael",11,"face21.jpg",7,4,3,"n",6,1,1,3,2
"715","Rafael",12,"face22.jpg",6,8,2,"n",6,0,1,3,2
"716","Rafael",13,"face23.jpg",7,5,2,"n",6,1,1,3,2
"717","Rafael",14,"face24.jpg",6,8,2,"n",6,0,1,3,2
"718","Rafael",15,"face25.jpg",3,3,0,"n",3,0,1,3,2
"719","Rafael",16,"face_0.jpg",4,2,2,"n",4,0,1,3,2
"720","Rafael",17,"face_1.jpg",1,3,2,"n",2,1,1,3,2
"721","Rafael",18,"face_2.jpg",5,5,0,"n",5,0,1,3,2
"722","Rafael",19,"face_3.jpg",2,2,0,"n",2,0,1,3,2
"723","Rafael",20,"face_4.jpg",6,8,2,"n",6,0,1,3,2
"724","Rafael",21,"face_5.jpg",4,6,2,"n",4,0,1,3,2
"725","Rafael",22,"face_6.jpg",5,7,2,"n",6,1,1,3,2
"726","Rafael",23,"face_7.jpg",7,5,2,"n",6,1,1,3,2
"727","Rafael",24,"face_8.jpg",2,2,0,"n",2,0,1,3,2
"728","Rafael",25,"face_9.jpg",2,4,2,"n",3,1,1,3,2
"729","Rasmus",0,"face11.jpg",5,3,2,"s",4,1,1,2,2
"730","Rasmus",1,"face10.jpg",4,4,0,"s",4,0,1,2,2
"731","Rasmus",2,"face12.jpg",4,4,0,"s",4,0,1,2,2
"732","Rasmus",3,"face13.jpg",6,6,0,"s",6,0,1,2,2
"733","Rasmus",4,"face17.jpg",2,5,3,"s",3,1,1,2,2
"734","Rasmus",5,"face_8.jpg",2,4,2,"s",2,0,1,2,2
"735","Rasmus",6,"face_9.jpg",4,4,0,"s",4,0,1,2,2
"736","Rasmus",7,"face16.jpg",6,4,2,"s",5,1,1,2,2
"737","Rasmus",8,"face14.jpg",4,6,2,"s",4,0,1,2,2
"738","Rasmus",9,"face15.jpg",3,5,2,"s",3,0,1,2,2
"739","Rasmus",10,"face24.jpg",7,7,0,"s",7,0,1,2,2
"740","Rasmus",11,"face18.jpg",5,2,3,"s",3,2,1,2,2
"741","Rasmus",12,"face_7.jpg",3,1,2,"s",2,1,1,2,2
"742","Rasmus",13,"face_6.jpg",2,2,0,"s",2,0,1,2,2
"743","Rasmus",14,"face19.jpg",7,4,3,"s",6,1,1,2,2
"744","Rasmus",15,"face25.jpg",4,7,3,"s",5,1,1,2,2
"745","Rasmus",16,"face_4.jpg",3,6,3,"s",5,2,1,2,2
"746","Rasmus",17,"face_5.jpg",3,5,2,"s",3,0,1,2,2
"747","Rasmus",18,"face22.jpg",5,3,2,"s",5,0,1,2,2
"748","Rasmus",19,"face_1.jpg",5,2,3,"s",4,1,1,2,2
"749","Rasmus",20,"face_0.jpg",4,4,0,"s",4,0,1,2,2
"750","Rasmus",21,"face23.jpg",6,8,2,"s",7,1,1,2,2
"751","Rasmus",22,"face21.jpg",6,8,2,"s",8,2,1,2,2
"752","Rasmus",23,"face_2.jpg",2,5,3,"s",3,1,1,2,2
"753","Rasmus",24,"face_3.jpg",6,6,0,"s",6,0,1,2,2
"754","Rasmus",25,"face20.jpg",3,1,2,"s",1,2,1,2,2
"755","Rebekka",0,"face10.jpg",4,2,2,"s",3,1,2,2,2
"756","Rebekka",1,"face11.jpg",3,1,2,"s",2,1,2,2,2
"757","Rebekka",2,"face12.jpg",3,1,2,"s",3,0,2,2,2
"758","Rebekka",3,"face13.jpg",4,7,3,"s",6,2,2,2,2
"759","Rebekka",4,"face14.jpg",6,6,0,"s",6,0,2,2,2
"760","Rebekka",5,"face15.jpg",4,7,3,"s",5,1,2,2,2
"761","Rebekka",6,"face16.jpg",8,6,2,"s",7,1,2,2,2
"762","Rebekka",7,"face17.jpg",5,7,2,"s",6,1,2,2,2
"763","Rebekka",8,"face18.jpg",5,3,2,"s",4,1,2,2,2
"764","Rebekka",9,"face19.jpg",7,4,3,"s",7,0,2,2,2
"765","Rebekka",10,"face20.jpg",4,7,3,"s",5,1,2,2,2
"766","Rebekka",11,"face21.jpg",6,6,0,"s",6,0,2,2,2
"767","Rebekka",12,"face22.jpg",6,6,0,"s",6,0,2,2,2
"768","Rebekka",13,"face23.jpg",6,3,3,"s",5,1,2,2,2
"769","Rebekka",14,"face24.jpg",5,5,0,"s",5,0,2,2,2
"770","Rebekka",15,"face25.jpg",5,5,0,"s",5,0,2,2,2
"771","Rebekka",16,"face_0.jpg",5,3,2,"s",4,1,2,2,2
"772","Rebekka",17,"face_1.jpg",5,2,3,"s",4,1,2,2,2
"773","Rebekka",18,"face_2.jpg",4,4,0,"s",4,0,2,2,2
"774","Rebekka",19,"face_3.jpg",6,6,0,"s",6,0,2,2,2
"775","Rebekka",20,"face_4.jpg",7,4,3,"s",5,2,2,2,2
"776","Rebekka",21,"face_5.jpg",4,6,2,"s",5,1,2,2,2
"777","Rebekka",22,"face_6.jpg",4,7,3,"s",5,1,2,2,2
"778","Rebekka",23,"face_7.jpg",6,6,0,"s",6,0,2,2,2
"779","Rebekka",24,"face_8.jpg",3,1,2,"s",2,1,2,2,2
"780","Rebekka",25,"face_9.jpg",6,8,2,"s",7,1,2,2,2
"781","søren",0,"face11.jpg",6,6,0,"n",6,0,3,1,1
"782","søren",1,"face10.jpg",6,8,2,"n",6,0,3,1,1
"783","søren",2,"face12.jpg",8,5,3,"n",8,0,3,1,1
"784","søren",3,"face13.jpg",7,4,3,"n",7,0,3,1,1
"785","søren",4,"face17.jpg",4,7,3,"n",4,0,3,1,1
"786","søren",5,"face_8.jpg",4,2,2,"n",4,0,3,1,1
"787","søren",6,"face_9.jpg",5,5,0,"n",5,0,3,1,1
"788","søren",7,"face16.jpg",8,6,2,"n",8,0,3,1,1
"789","søren",8,"face14.jpg",7,7,0,"n",7,0,3,1,1
"790","søren",9,"face15.jpg",5,7,2,"n",5,0,3,1,1
"791","søren",10,"face24.jpg",6,8,2,"n",6,0,3,1,1
"792","søren",11,"face18.jpg",4,4,0,"n",4,0,3,1,1
"793","søren",12,"face_7.jpg",6,8,2,"n",7,1,3,1,1
"794","søren",13,"face_6.jpg",5,8,3,"n",5,0,3,1,1
"795","søren",14,"face19.jpg",8,8,0,"n",8,0,3,1,1
"796","søren",15,"face25.jpg",8,8,0,"n",8,0,3,1,1
"797","søren",16,"face_4.jpg",7,5,2,"n",7,0,3,1,1
"798","søren",17,"face_5.jpg",6,8,2,"n",6,0,3,1,1
"799","søren",18,"face22.jpg",7,5,2,"n",7,0,3,1,1
"800","søren",19,"face_1.jpg",4,1,3,"n",4,0,3,1,1
"801","søren",20,"face_0.jpg",5,5,0,"n",5,0,3,1,1
"802","søren",21,"face23.jpg",8,5,3,"n",8,0,3,1,1
"803","søren",22,"face21.jpg",7,5,2,"n",7,0,3,1,1
"804","søren",23,"face_2.jpg",5,5,0,"n",5,0,3,1,1
"805","søren",24,"face_3.jpg",4,2,2,"n",4,0,3,1,1
"806","søren",25,"face20.jpg",3,1,2,"n",3,0,3,1,1
"807","Sara",0,"face10.jpg",4,4,0,"n",4,0,1,2,2
"808","Sara",1,"face11.jpg",3,5,2,"n",3,0,1,2,2
"809","Sara",2,"face12.jpg",5,3,2,"n",5,0,1,2,2
"810","Sara",3,"face13.jpg",6,4,2,"n",5,1,1,2,2
"811","Sara",4,"face14.jpg",6,4,2,"n",5,1,1,2,2
"812","Sara",5,"face15.jpg",2,2,0,"n",2,0,1,2,2
"813","Sara",6,"face16.jpg",7,7,0,"n",7,0,1,2,2
"814","Sara",7,"face17.jpg",3,3,0,"n",3,0,1,2,2
"815","Sara",8,"face18.jpg",3,1,2,"n",2,1,1,2,2
"816","Sara",9,"face19.jpg",8,8,0,"n",8,0,1,2,2
"817","Sara",10,"face20.jpg",2,4,2,"n",3,1,1,2,2
"818","Sara",11,"face21.jpg",7,4,3,"n",6,1,1,2,2
"819","Sara",12,"face22.jpg",5,2,3,"n",4,1,1,2,2
"820","Sara",13,"face23.jpg",7,5,2,"n",6,1,1,2,2
"821","Sara",14,"face24.jpg",8,5,3,"n",7,1,1,2,2
"822","Sara",15,"face25.jpg",5,5,0,"n",5,0,1,2,2
"823","Sara",16,"face_0.jpg",4,6,2,"n",5,1,1,2,2
"824","Sara",17,"face_1.jpg",3,3,0,"n",3,0,1,2,2
"825","Sara",18,"face_2.jpg",3,6,3,"n",4,1,1,2,2
"826","Sara",19,"face_3.jpg",5,2,3,"n",4,1,1,2,2
"827","Sara",20,"face_4.jpg",5,5,0,"n",5,0,1,2,2
"828","Sara",21,"face_5.jpg",5,5,0,"n",5,0,1,2,2
"829","Sara",22,"face_6.jpg",4,7,3,"n",5,1,1,2,2
"830","Sara",23,"face_7.jpg",5,7,2,"n",6,1,1,2,2
"831","Sara",24,"face_8.jpg",5,3,2,"n",3,2,1,2,2
"832","Sara",25,"face_9.jpg",3,1,2,"n",2,1,1,2,2
"833","Simran",0,"face10.jpg",7,7,0,"s",7,0,2,3,3
"834","Simran",1,"face11.jpg",7,7,0,"s",7,0,2,3,3
"835","Simran",2,"face12.jpg",8,5,3,"s",7,1,2,3,3
"836","Simran",3,"face13.jpg",8,8,0,"s",8,0,2,3,3
"837","Simran",4,"face14.jpg",8,6,2,"s",7,1,2,3,3
"838","Simran",5,"face15.jpg",5,3,2,"s",3,2,2,3,3
"839","Simran",6,"face16.jpg",4,4,0,"s",4,0,2,3,3
"840","Simran",7,"face17.jpg",3,5,2,"s",3,0,2,3,3
"841","Simran",8,"face18.jpg",2,2,0,"s",2,0,2,3,3
"842","Simran",9,"face19.jpg",6,8,2,"s",7,1,2,3,3
"843","Simran",10,"face20.jpg",3,3,0,"s",3,0,2,3,3
"844","Simran",11,"face21.jpg",5,7,2,"s",6,1,2,3,3
"845","Simran",12,"face22.jpg",4,4,0,"s",4,0,2,3,3
"846","Simran",13,"face23.jpg",5,3,2,"s",4,1,2,3,3
"847","Simran",14,"face24.jpg",6,6,0,"s",6,0,2,3,3
"848","Simran",15,"face25.jpg",6,3,3,"s",5,1,2,3,3
"849","Simran",16,"face_0.jpg",2,5,3,"s",2,0,2,3,3
"850","Simran",17,"face_1.jpg",2,5,3,"s",2,0,2,3,3
"851","Simran",18,"face_2.jpg",2,5,3,"s",2,0,2,3,3
"852","Simran",19,"face_3.jpg",2,4,2,"s",2,0,2,3,3
"853","Simran",20,"face_4.jpg",3,3,0,"s",3,0,2,3,3
"854","Simran",21,"face_5.jpg",3,3,0,"s",3,0,2,3,3
"855","Simran",22,"face_6.jpg",2,2,0,"s",2,0,2,3,3
"856","Simran",23,"face_7.jpg",2,5,3,"s",2,0,2,3,3
"857","Simran",24,"face_8.jpg",2,2,0,"s",2,0,2,3,3
"858","Simran",25,"face_9.jpg",2,4,2,"s",2,0,2,3,3
"859","Solveig",0,"face10.jpg",2,2,0,"s",2,0,1,1,2
"860","Solveig",1,"face11.jpg",4,2,2,"s",3,1,1,1,2
"861","Solveig",2,"face12.jpg",1,1,0,"s",1,0,1,1,2
"862","Solveig",3,"face13.jpg",3,6,3,"s",4,1,1,1,2
"863","Solveig",4,"face14.jpg",5,5,0,"s",5,0,1,1,2
"864","Solveig",5,"face15.jpg",1,1,0,"s",1,0,1,1,2
"865","Solveig",6,"face16.jpg",2,2,0,"s",2,0,1,1,2
"866","Solveig",7,"face17.jpg",3,1,2,"s",2,1,1,1,2
"867","Solveig",8,"face18.jpg",2,4,2,"s",2,0,1,1,2
"868","Solveig",9,"face19.jpg",6,4,2,"s",6,0,1,1,2
"869","Solveig",10,"face20.jpg",1,1,0,"s",1,0,1,1,2
"870","Solveig",11,"face21.jpg",1,3,2,"s",1,0,1,1,2
"871","Solveig",12,"face22.jpg",4,2,2,"s",3,1,1,1,2
"872","Solveig",13,"face23.jpg",5,8,3,"s",5,0,1,1,2
"873","Solveig",14,"face24.jpg",4,4,0,"s",4,0,1,1,2
"874","Solveig",15,"face25.jpg",3,3,0,"s",3,0,1,1,2
"875","Solveig",16,"face_0.jpg",1,1,0,"s",1,0,1,1,2
"876","Solveig",17,"face_1.jpg",2,4,2,"s",3,1,1,1,2
"877","Solveig",18,"face_2.jpg",1,4,3,"s",2,1,1,1,2
"878","Solveig",19,"face_3.jpg",4,7,3,"s",5,1,1,1,2
"879","Solveig",20,"face_4.jpg",5,7,2,"s",6,1,1,1,2
"880","Solveig",21,"face_5.jpg",2,2,0,"s",2,0,1,1,2
"881","Solveig",22,"face_6.jpg",1,1,0,"s",1,0,1,1,2
"882","Solveig",23,"face_7.jpg",4,6,2,"s",6,2,1,1,2
"883","Solveig",24,"face_8.jpg",1,4,3,"s",1,0,1,1,2
"884","Solveig",25,"face_9.jpg",1,3,2,"s",2,1,1,1,2
"885","Stine",0,"face10.jpg",4,4,0,"n",4,0,1,3,2
"886","Stine",1,"face11.jpg",4,4,0,"n",4,0,1,3,2
"887","Stine",2,"face12.jpg",4,4,0,"n",4,0,1,3,2
"888","Stine",3,"face13.jpg",5,3,2,"n",5,0,1,3,2
"889","Stine",4,"face14.jpg",4,4,0,"n",4,0,1,3,2
"890","Stine",5,"face15.jpg",5,2,3,"n",5,0,1,3,2
"891","Stine",6,"face16.jpg",5,7,2,"n",6,1,1,3,2
"892","Stine",7,"face17.jpg",4,2,2,"n",3,1,1,3,2
"893","Stine",8,"face18.jpg",5,3,2,"n",4,1,1,3,2
"894","Stine",9,"face19.jpg",6,8,2,"n",7,1,1,3,2
"895","Stine",10,"face20.jpg",3,1,2,"n",2,1,1,3,2
"896","Stine",11,"face21.jpg",7,4,3,"n",6,1,1,3,2
"897","Stine",12,"face22.jpg",6,6,0,"n",6,0,1,3,2
"898","Stine",13,"face23.jpg",6,8,2,"n",7,1,1,3,2
"899","Stine",14,"face24.jpg",6,8,2,"n",7,1,1,3,2
"900","Stine",15,"face25.jpg",5,8,3,"n",5,0,1,3,2
"901","Stine",16,"face_0.jpg",3,3,0,"n",3,0,1,3,2
"902","Stine",17,"face_1.jpg",5,8,3,"n",5,0,1,3,2
"903","Stine",18,"face_2.jpg",3,5,2,"n",3,0,1,3,2
"904","Stine",19,"face_3.jpg",6,8,2,"n",7,1,1,3,2
"905","Stine",20,"face_4.jpg",5,5,0,"n",5,0,1,3,2
"906","Stine",21,"face_5.jpg",6,6,0,"n",6,0,1,3,2
"907","Stine",22,"face_6.jpg",6,3,3,"n",4,2,1,3,2
"908","Stine",23,"face_7.jpg",5,5,0,"n",5,0,1,3,2
"909","Stine",24,"face_8.jpg",4,4,0,"n",4,0,1,3,2
"910","Stine",25,"face_9.jpg",6,8,2,"n",7,1,1,3,2
"911","Trine",0,"face10.jpg",6,8,2,"n",6,0,2,3,2
"912","Trine",1,"face11.jpg",7,4,3,"n",6,1,2,3,2
"913","Trine",2,"face12.jpg",5,8,3,"n",6,1,2,3,2
"914","Trine",3,"face13.jpg",6,6,0,"n",6,0,2,3,2
"915","Trine",4,"face14.jpg",8,5,3,"n",7,1,2,3,2
"916","Trine",5,"face15.jpg",6,6,0,"n",6,0,2,3,2
"917","Trine",6,"face16.jpg",8,5,3,"n",7,1,2,3,2
"918","Trine",7,"face17.jpg",5,2,3,"n",4,1,2,3,2
"919","Trine",8,"face18.jpg",5,5,0,"n",5,0,2,3,2
"920","Trine",9,"face19.jpg",8,8,0,"n",8,0,2,3,2
"921","Trine",10,"face20.jpg",7,5,2,"n",6,1,2,3,2
"922","Trine",11,"face21.jpg",6,8,2,"n",7,1,2,3,2
"923","Trine",12,"face22.jpg",7,4,3,"n",6,1,2,3,2
"924","Trine",13,"face23.jpg",6,6,0,"n",6,0,2,3,2
"925","Trine",14,"face24.jpg",6,8,2,"n",6,0,2,3,2
"926","Trine",15,"face25.jpg",8,5,3,"n",7,1,2,3,2
"927","Trine",16,"face_0.jpg",4,2,2,"n",3,1,2,3,2
"928","Trine",17,"face_1.jpg",6,3,3,"n",5,1,2,3,2
"929","Trine",18,"face_2.jpg",6,6,0,"n",6,0,2,3,2
"930","Trine",19,"face_3.jpg",5,2,3,"n",5,0,2,3,2
"931","Trine",20,"face_4.jpg",7,7,0,"n",7,0,2,3,2
"932","Trine",21,"face_5.jpg",6,8,2,"n",6,0,2,3,2
"933","Trine",22,"face_6.jpg",5,5,0,"n",5,0,2,3,2
"934","Trine",23,"face_7.jpg",7,7,0,"n",7,0,2,3,2
"935","Trine",24,"face_8.jpg",6,6,0,"n",6,0,2,3,2
"936","Trine",25,"face_9.jpg",5,5,0,"n",5,0,2,3,2
